{
  "type": "FeatureCollection",
  "features": [
    {
      "type": "Feature",
      "properties": {},
      "geometry": {
        "type": "Point",
        "coordinates": [
          110.5224609375,
          -8.667918002363121
        ]
      }  
    },
    {
      "type": "Feature",
      "properties": { "jenis":"pencemaran_laut",
"lon":"-3.97254535074269",
"lat":"122.586801468651",
"tanggal":"2015-01-09",
"jenis_pencemaran":"Limbah Industri",
"status":"Minor",
"penyebab":"Udin",
"keterangan":"Lorem ipsum dolor sit amet, consectetur adipiscing elit. Nam dolor velit, sodales eget neque vitae, fringilla hendrerit risus",
"jari_jari":16,
"lokasi":"Laut Lokasi"},
      "geometry": {
        "type": "Point",
        "coordinates": [
          105.99609375,
          -4.740675384778361
        ]
      }
    },
    {
      "type": "Feature",
      "properties": {
        "jenis":"pencemaran_laut",
"lon":"5.39042",
"lat":"100.25241",
"tanggal":"2015-02-01",
"jenis_pencemaran":"Pemboman Ikan",
"status":"Mayor",
"penyebab":"Samarudin",
"keterangan":"Lorem ipsum dolor sit amet, consectetur adipiscing elit. Nam dolor velit, sodales eget neque vitae, fringilla hendrerit risus",
"jari_jari":25,
"lokasi":"Laut Lokasi"},
      "geometry": {
        "type": "Point",
        "coordinates": [
          119.53125,
          -9.058702156392126
        ]
      }
    },
    {
      "type": "Feature",
      "properties": {"jenis":"karang",
"lon":"-5.08896524989842",
"lat":"120.276304882826",
"tanggal":"2015-04-09",
"jenis_pencemaran":"Penambangan Pasir Laut",
"status":"Minor",
"penyebab":"Pemboman",
"keterangan":"Lorem ipsum dolor sit amet, consectetur adipiscing elit. Nam dolor velit, sodales eget neque vitae, fringilla hendrerit risus",
"jari_jari":1,
"lokasi":"Laut Lokasi"},
      "geometry": {
        "type": "Point",
        "coordinates": [
          100.32714843749999,
          -2.4162756547063857
        ]
      }
    },
    {
      "type": "Feature",
      "properties": {"jenis":"bakau",
"lon":"-0.277314020846724",
"lat":"121.939992469917",
"tanggal":"2015-05-09",
"jenis_pencemaran":"Limbah Industri",
"status":"Critical",
"penyebab":"Pemanfaatan Lahan Bakau Untuk Pertanian",
"keterangan":"Lorem ipsum dolor sit amet, consectetur adipiscing elit. Nam dolor velit, sodales eget neque vitae, fringilla hendrerit risus",
"jari_jari":27,
"lokasi":"Laut Lokasi"},
      "geometry": {
        "type": "Point",
        "coordinates": [
          98.26171875,
          1.625758360412755
        ]
      }
    },
    {
      "type": "Feature",
      "properties": {"jenis":"pencemaran_laut",
"lon":"0.51133",
"lat":"123.06738",
"tanggal":"2015-05-15",
"jenis_pencemaran":"Pemboman Ikan",
"status":"Minor",
"penyebab":"Ipin",
"keterangan":"Lorem ipsum dolor sit amet, consectetur adipiscing elit. Nam dolor velit, sodales eget neque vitae, fringilla hendrerit risus",
"jari_jari":30,
"lokasi":"Laut Lokasi"},
      "geometry": {
        "type": "Point",
        "coordinates": [
          114.345703125,
          -7.406047717076258
        ]
      }
    },
    {
      "type": "Feature",
      "properties": {"jenis":"pencemaran_laut",
"lon":"-5.07981",
"lat":"119.45536",
"tanggal":"2015-06-12",
"jenis_pencemaran":"Penambangan Pasir Laut",
"status":"Mayor",
"penyebab":"Aning",
"keterangan":"Lorem ipsum dolor sit amet, consectetur adipiscing elit. Nam dolor velit, sodales eget neque vitae, fringilla hendrerit risus",
"jari_jari":8,
"lokasi":"Laut Lokasi"},
      "geometry": {
        "type": "Point",
        "coordinates": [
          108.017578125,
          -6.0968598188879355
        ]
      }
    },
    {
      "type": "Feature",
      "properties": {"jenis":"karang",
"lon":"3.28407",
"lat":"117.58561",
"tanggal":"2015-08-21",
"jenis_pencemaran":"Limbah Industri",
"status":"Minor",
"penyebab":"Racun",
"keterangan":"Lorem ipsum dolor sit amet, consectetur adipiscing elit. Nam dolor velit, sodales eget neque vitae, fringilla hendrerit risus",
"jari_jari":4,
"lokasi":"Laut Lokasi"},
      "geometry": {
        "type": "Point",
        "coordinates": [
          115.4443359375,
          -9.058702156392126
        ]
      }
    },
    {
      "type": "Feature",
      "properties": { "jenis":"pencemaran_laut", 
"tanggal":"2015-03-21",
"jenis_pencemaran":"Limbah Industri",
"status":"Minor",
"penyebab":"alexs",
"keterangan":"Lorem ipsum dolor sit amet, consectetur adipiscing elit. Nam dolor velit, sodales eget neque vitae, fringilla hendrerit risus",
"jari_jari":9,
"lokasi":"Laut Lokasi"},
      "geometry": {
        "type": "Polygon",
        "coordinates": [
          [
            [
              106.435546875,
              -5.878332109674314
            ],
            [
              107.20458984375,
              -5.484768018141262
            ],
            [
              106.98486328124999,
              -5.134714634014442
            ],
            [
              107.40234375,
              -4.740675384778361
            ],
            [
              108.25927734375,
              -5.00339434502215
            ],
            [
              108.5009765625,
              -5.5941182188847876
            ],
            [
              107.68798828125,
              -5.769035866122123
            ],
            [
              107.138671875,
              -5.922044619883305
            ],
            [
              106.435546875,
              -5.878332109674314
            ]
          ]
        ]
      }
    }

  ]
}